{
  "alt_string": "",
  "names": [
    "Set_Bonus.Set_Bonus.Improved_Recovery_1"
  ],
  "power_ids": [
    "Set_Bonus.Set_Bonus.Improved_Recovery_1"
  ],
  "pv_mode": "Any",
  "slotted": 2,
  "special": -1
}