[
  {
    "absorbed_class_id": -1,
    "absorbed_duration": 0,
    "absorbed_effect": false,
    "absorbed_effect_id": -1,
    "absorbed_interval": 0,
    "absorbed_power_id": "",
    "absorbed_power_type": "Automatic",
    "aspect": "Cur",
    "attribute_type": "Duration",
    "buff_mode": "Normal",
    "buffable": false,
    "cancel_on_miss": false,
    "damage_type": "None",
    "delayed_time": 0,
    "display_percentage": false,
    "display_percentage_override": "NoOverride",
    "duration": 0.75,
    "effect_class": "Primary",
    "effect_id": "Ones",
    "effect_type": "Mez",
    "effect_type_modifies": "None",
    "enhancement_long_name": "",
    "inherent_special": false,
    "is_enhancement_effect": false,
    "mag": 100,
    "mag_percent": 100,
    "magnitude": 100,
    "magnitude_expression": "",
    "math_duration": 0,
    "math_mag": 0,
    "mez_type": "OnlyAffectsSelf",
    "modifier_table": "Melee_Ones",
    "modifier_table_index": 41,
    "near_ground": false,
    "override_value": "",
    "override_count": -1,
    "power_id": "Defender_Buff.Force_Field.Personal_Force_Field",
    "probability": 1,
    "probability_base": 1,
    "procs_per_minute": 0,
    "pv_mode": "Any",
    "requires_to_hit_check": false,
    "resistible": false,
    "reward": "",
    "scale": 0.75,
    "special": "",
    "special_case": "None",
    "stacking": "No",
    "summon": "",
    "summon_count": -1,
    "suppression": 256,
    "ticks": 0,
    "to_who": "ToSelf",
    "id_class_name": "",
    "unique_id": 1,
    "variable_modified": false,
    "variable_modified_override": false
  },
  {
    "absorbed_class_id": -1,
    "absorbed_duration": 0,
    "absorbed_effect": false,
    "absorbed_effect_id": -1,
    "absorbed_interval": 0,
    "absorbed_power_id": "",
    "absorbed_power_type": "Automatic",
    "aspect": "Cur",
    "attribute_type": "Magnitude",
    "buff_mode": "Normal",
    "buffable": true,
    "cancel_on_miss": false,
    "damage_type": "None",
    "delayed_time": 0,
    "display_percentage": true,
    "display_percentage_override": "NoOverride",
    "duration": 0.75,
    "effect_class": "Primary",
    "effect_id": "Buff_Def",
    "effect_type": "Defense",
    "effect_type_modifies": "None",
    "enhancement_long_name": "",
    "inherent_special": false,
    "is_enhancement_effect": false,
    "mag": 0.75,
    "mag_percent": 75,
    "magnitude": 1,
    "magnitude_expression": "",
    "math_duration": 0,
    "math_mag": 0,
    "mez_type": "None",
    "modifier_table": "Melee_Buff_Def",
    "modifier_table_index": 12,
    "near_ground": false,
    "override_value": "",
    "override_count": -1,
    "power_id": "Defender_Buff.Force_Field.Personal_Force_Field",
    "probability": 1,
    "probability_base": 1,
    "procs_per_minute": 0,
    "pv_mode": "PvE",
    "requires_to_hit_check": false,
    "resistible": false,
    "reward": "",
    "scale": 7.5,
    "special": "",
    "special_case": "None",
    "stacking": "No",
    "summon": "",
    "summon_count": -1,
    "suppression": 256,
    "ticks": 0,
    "to_who": "ToSelf",
    "id_class_name": "",
    "unique_id": 2,
    "variable_modified": false,
    "variable_modified_override": false
  },
  {
    "absorbed_class_id": -1,
    "absorbed_duration": 0,
    "absorbed_effect": false,
    "absorbed_effect_id": -1,
    "absorbed_interval": 0,
    "absorbed_power_id": "",
    "absorbed_power_type": "Automatic",
    "aspect": "Res",
    "attribute_type": "Magnitude",
    "buff_mode": "Normal",
    "buffable": false,
    "cancel_on_miss": false,
    "damage_type": "Smashing",
    "delayed_time": 0,
    "display_percentage": true,
    "display_percentage_override": "NoOverride",
    "duration": 0.75,
    "effect_class": "Primary",
    "effect_id": "Res_Dmg",
    "effect_type": "Resistance",
    "effect_type_modifies": "None",
    "enhancement_long_name": "",
    "inherent_special": false,
    "is_enhancement_effect": false,
    "mag": 0.400000006,
    "mag_percent": 40,
    "magnitude": 1,
    "magnitude_expression": "",
    "math_duration": 0,
    "math_mag": 0,
    "mez_type": "None",
    "modifier_table": "Melee_Res_Dmg",
    "modifier_table_index": 18,
    "near_ground": false,
    "override_value": "",
    "override_count": -1,
    "power_id": "Defender_Buff.Force_Field.Personal_Force_Field",
    "probability": 1,
    "probability_base": 1,
    "procs_per_minute": 0,
    "pv_mode": "PvE",
    "requires_to_hit_check": false,
    "resistible": false,
    "reward": "",
    "scale": 4,
    "special": "",
    "special_case": "None",
    "stacking": "No",
    "summon": "",
    "summon_count": -1,
    "suppression": 256,
    "ticks": 0,
    "to_who": "ToSelf",
    "id_class_name": "",
    "unique_id": 3,
    "variable_modified": false,
    "variable_modified_override": false
  },
  {
    "absorbed_class_id": -1,
    "absorbed_duration": 0,
    "absorbed_effect": false,
    "absorbed_effect_id": -1,
    "absorbed_interval": 0,
    "absorbed_power_id": "",
    "absorbed_power_type": "Automatic",
    "aspect": "Res",
    "attribute_type": "Magnitude",
    "buff_mode": "Normal",
    "buffable": false,
    "cancel_on_miss": false,
    "damage_type": "Lethal",
    "delayed_time": 0,
    "display_percentage": true,
    "display_percentage_override": "NoOverride",
    "duration": 0.75,
    "effect_class": "Primary",
    "effect_id": "Res_Dmg",
    "effect_type": "Resistance",
    "effect_type_modifies": "None",
    "enhancement_long_name": "",
    "inherent_special": false,
    "is_enhancement_effect": false,
    "mag": 0.400000006,
    "mag_percent": 40,
    "magnitude": 1,
    "magnitude_expression": "",
    "math_duration": 0,
    "math_mag": 0,
    "mez_type": "None",
    "modifier_table": "Melee_Res_Dmg",
    "modifier_table_index": 18,
    "near_ground": false,
    "override_value": "",
    "override_count": -1,
    "power_id": "Defender_Buff.Force_Field.Personal_Force_Field",
    "probability": 1,
    "probability_base": 1,
    "procs_per_minute": 0,
    "pv_mode": "PvE",
    "requires_to_hit_check": false,
    "resistible": false,
    "reward": "",
    "scale": 4,
    "special": "",
    "special_case": "None",
    "stacking": "No",
    "summon": "",
    "summon_count": -1,
    "suppression": 256,
    "ticks": 0,
    "to_who": "ToSelf",
    "id_class_name": "",
    "unique_id": 4,
    "variable_modified": false,
    "variable_modified_override": false
  },
  {
    "absorbed_class_id": -1,
    "absorbed_duration": 0,
    "absorbed_effect": false,
    "absorbed_effect_id": -1,
    "absorbed_interval": 0,
    "absorbed_power_id": "",
    "absorbed_power_type": "Automatic",
    "aspect": "Res",
    "attribute_type": "Magnitude",
    "buff_mode": "Normal",
    "buffable": false,
    "cancel_on_miss": false,
    "damage_type": "Fire",
    "delayed_time": 0,
    "display_percentage": true,
    "display_percentage_override": "NoOverride",
    "duration": 0.75,
    "effect_class": "Primary",
    "effect_id": "Res_Dmg",
    "effect_type": "Resistance",
    "effect_type_modifies": "None",
    "enhancement_long_name": "",
    "inherent_special": false,
    "is_enhancement_effect": false,
    "mag": 0.400000006,
    "mag_percent": 40,
    "magnitude": 1,
    "magnitude_expression": "",
    "math_duration": 0,
    "math_mag": 0,
    "mez_type": "None",
    "modifier_table": "Melee_Res_Dmg",
    "modifier_table_index": 18,
    "near_ground": false,
    "override_value": "",
    "override_count": -1,
    "power_id": "Defender_Buff.Force_Field.Personal_Force_Field",
    "probability": 1,
    "probability_base": 1,
    "procs_per_minute": 0,
    "pv_mode": "PvE",
    "requires_to_hit_check": false,
    "resistible": false,
    "reward": "",
    "scale": 4,
    "special": "",
    "special_case": "None",
    "stacking": "No",
    "summon": "",
    "summon_count": -1,
    "suppression": 256,
    "ticks": 0,
    "to_who": "ToSelf",
    "id_class_name": "",
    "unique_id": 5,
    "variable_modified": false,
    "variable_modified_override": false
  },
  {
    "absorbed_class_id": -1,
    "absorbed_duration": 0,
    "absorbed_effect": false,
    "absorbed_effect_id": -1,
    "absorbed_interval": 0,
    "absorbed_power_id": "",
    "absorbed_power_type": "Automatic",
    "aspect": "Res",
    "attribute_type": "Magnitude",
    "buff_mode": "Normal",
    "buffable": false,
    "cancel_on_miss": false,
    "damage_type": "Cold",
    "delayed_time": 0,
    "display_percentage": true,
    "display_percentage_override": "NoOverride",
    "duration": 0.75,
    "effect_class": "Primary",
    "effect_id": "Res_Dmg",
    "effect_type": "Resistance",
    "effect_type_modifies": "None",
    "enhancement_long_name": "",
    "inherent_special": false,
    "is_enhancement_effect": false,
    "mag": 0.400000006,
    "mag_percent": 40,
    "magnitude": 1,
    "magnitude_expression": "",
    "math_duration": 0,
    "math_mag": 0,
    "mez_type": "None",
    "modifier_table": "Melee_Res_Dmg",
    "modifier_table_index": 18,
    "near_ground": false,
    "override_value": "",
    "override_count": -1,
    "power_id": "Defender_Buff.Force_Field.Personal_Force_Field",
    "probability": 1,
    "probability_base": 1,
    "procs_per_minute": 0,
    "pv_mode": "PvE",
    "requires_to_hit_check": false,
    "resistible": false,
    "reward": "",
    "scale": 4,
    "special": "",
    "special_case": "None",
    "stacking": "No",
    "summon": "",
    "summon_count": -1,
    "suppression": 256,
    "ticks": 0,
    "to_who": "ToSelf",
    "id_class_name": "",
    "unique_id": 6,
    "variable_modified": false,
    "variable_modified_override": false
  },
  {
    "absorbed_class_id": -1,
    "absorbed_duration": 0,
    "absorbed_effect": false,
    "absorbed_effect_id": -1,
    "absorbed_interval": 0,
    "absorbed_power_id": "",
    "absorbed_power_type": "Automatic",
    "aspect": "Res",
    "attribute_type": "Magnitude",
    "buff_mode": "Normal",
    "buffable": false,
    "cancel_on_miss": false,
    "damage_type": "Energy",
    "delayed_time": 0,
    "display_percentage": true,
    "display_percentage_override": "NoOverride",
    "duration": 0.75,
    "effect_class": "Primary",
    "effect_id": "Res_Dmg",
    "effect_type": "Resistance",
    "effect_type_modifies": "None",
    "enhancement_long_name": "",
    "inherent_special": false,
    "is_enhancement_effect": false,
    "mag": 0.400000006,
    "mag_percent": 40,
    "magnitude": 1,
    "magnitude_expression": "",
    "math_duration": 0,
    "math_mag": 0,
    "mez_type": "None",
    "modifier_table": "Melee_Res_Dmg",
    "modifier_table_index": 18,
    "near_ground": false,
    "override_value": "",
    "override_count": -1,
    "power_id": "Defender_Buff.Force_Field.Personal_Force_Field",
    "probability": 1,
    "probability_base": 1,
    "procs_per_minute": 0,
    "pv_mode": "PvE",
    "requires_to_hit_check": false,
    "resistible": false,
    "reward": "",
    "scale": 4,
    "special": "",
    "special_case": "None",
    "stacking": "No",
    "summon": "",
    "summon_count": -1,
    "suppression": 256,
    "ticks": 0,
    "to_who": "ToSelf",
    "id_class_name": "",
    "unique_id": 7,
    "variable_modified": false,
    "variable_modified_override": false
  },
  {
    "absorbed_class_id": -1,
    "absorbed_duration": 0,
    "absorbed_effect": false,
    "absorbed_effect_id": -1,
    "absorbed_interval": 0,
    "absorbed_power_id": "",
    "absorbed_power_type": "Automatic",
    "aspect": "Res",
    "attribute_type": "Magnitude",
    "buff_mode": "Normal",
    "buffable": false,
    "cancel_on_miss": false,
    "damage_type": "Negative",
    "delayed_time": 0,
    "display_percentage": true,
    "display_percentage_override": "NoOverride",
    "duration": 0.75,
    "effect_class": "Primary",
    "effect_id": "Res_Dmg",
    "effect_type": "Resistance",
    "effect_type_modifies": "None",
    "enhancement_long_name": "",
    "inherent_special": false,
    "is_enhancement_effect": false,
    "mag": 0.400000006,
    "mag_percent": 40,
    "magnitude": 1,
    "magnitude_expression": "",
    "math_duration": 0,
    "math_mag": 0,
    "mez_type": "None",
    "modifier_table": "Melee_Res_Dmg",
    "modifier_table_index": 18,
    "near_ground": false,
    "override_value": "",
    "override_count": -1,
    "power_id": "Defender_Buff.Force_Field.Personal_Force_Field",
    "probability": 1,
    "probability_base": 1,
    "procs_per_minute": 0,
    "pv_mode": "PvE",
    "requires_to_hit_check": false,
    "resistible": false,
    "reward": "",
    "scale": 4,
    "special": "",
    "special_case": "None",
    "stacking": "No",
    "summon": "",
    "summon_count": -1,
    "suppression": 256,
    "ticks": 0,
    "to_who": "ToSelf",
    "id_class_name": "",
    "unique_id": 8,
    "variable_modified": false,
    "variable_modified_override": false
  },
  {
    "absorbed_class_id": -1,
    "absorbed_duration": 0,
    "absorbed_effect": false,
    "absorbed_effect_id": -1,
    "absorbed_interval": 0,
    "absorbed_power_id": "",
    "absorbed_power_type": "Automatic",
    "aspect": "Res",
    "attribute_type": "Magnitude",
    "buff_mode": "Normal",
    "buffable": false,
    "cancel_on_miss": false,
    "damage_type": "Psionic",
    "delayed_time": 0,
    "display_percentage": true,
    "display_percentage_override": "NoOverride",
    "duration": 0.75,
    "effect_class": "Primary",
    "effect_id": "Res_Dmg",
    "effect_type": "Resistance",
    "effect_type_modifies": "None",
    "enhancement_long_name": "",
    "inherent_special": false,
    "is_enhancement_effect": false,
    "mag": 0.400000006,
    "mag_percent": 40,
    "magnitude": 1,
    "magnitude_expression": "",
    "math_duration": 0,
    "math_mag": 0,
    "mez_type": "None",
    "modifier_table": "Melee_Res_Dmg",
    "modifier_table_index": 18,
    "near_ground": false,
    "override_value": "",
    "override_count": -1,
    "power_id": "Defender_Buff.Force_Field.Personal_Force_Field",
    "probability": 1,
    "probability_base": 1,
    "procs_per_minute": 0,
    "pv_mode": "PvE",
    "requires_to_hit_check": false,
    "resistible": false,
    "reward": "",
    "scale": 4,
    "special": "",
    "special_case": "None",
    "stacking": "No",
    "summon": "",
    "summon_count": -1,
    "suppression": 256,
    "ticks": 0,
    "to_who": "ToSelf",
    "id_class_name": "",
    "unique_id": 9,
    "variable_modified": false,
    "variable_modified_override": false
  },
  {
    "absorbed_class_id": -1,
    "absorbed_duration": 0,
    "absorbed_effect": false,
    "absorbed_effect_id": -1,
    "absorbed_interval": 0,
    "absorbed_power_id": "",
    "absorbed_power_type": "Automatic",
    "aspect": "Str",
    "attribute_type": "Magnitude",
    "buff_mode": "Normal",
    "buffable": false,
    "cancel_on_miss": false,
    "damage_type": "None",
    "delayed_time": 0,
    "display_percentage": true,
    "display_percentage_override": "NoOverride",
    "duration": 0.75,
    "effect_class": "Primary",
    "effect_id": "Ones",
    "effect_type": "Enhancement",
    "effect_type_modifies": "Elusivity",
    "enhancement_long_name": "",
    "inherent_special": false,
    "is_enhancement_effect": false,
    "mag": 0.5,
    "mag_percent": 50,
    "magnitude": 1,
    "magnitude_expression": "",
    "math_duration": 0,
    "math_mag": 0,
    "mez_type": "None",
    "modifier_table": "Melee_Ones",
    "modifier_table_index": 41,
    "near_ground": false,
    "override_value": "",
    "override_count": -1,
    "power_id": "Defender_Buff.Force_Field.Personal_Force_Field",
    "probability": 1,
    "probability_base": 1,
    "procs_per_minute": 0,
    "pv_mode": "PvP",
    "requires_to_hit_check": false,
    "resistible": false,
    "reward": "",
    "scale": 0.5,
    "special": "",
    "special_case": "None",
    "stacking": "No",
    "summon": "",
    "summon_count": -1,
    "suppression": 256,
    "ticks": 0,
    "to_who": "ToSelf",
    "id_class_name": "",
    "unique_id": 10,
    "variable_modified": false,
    "variable_modified_override": false
  },
  {
    "absorbed_class_id": -1,
    "absorbed_duration": 0,
    "absorbed_effect": false,
    "absorbed_effect_id": -1,
    "absorbed_interval": 0,
    "absorbed_power_id": "",
    "absorbed_power_type": "Automatic",
    "aspect": "Cur",
    "attribute_type": "Magnitude",
    "buff_mode": "Normal",
    "buffable": true,
    "cancel_on_miss": false,
    "damage_type": "Smashing",
    "delayed_time": 0,
    "display_percentage": true,
    "display_percentage_override": "NoOverride",
    "duration": 0.75,
    "effect_class": "Primary",
    "effect_id": "Buff_Def",
    "effect_type": "Defense",
    "effect_type_modifies": "None",
    "enhancement_long_name": "",
    "inherent_special": false,
    "is_enhancement_effect": false,
    "mag": 0.75,
    "mag_percent": 75,
    "magnitude": 1,
    "magnitude_expression": "",
    "math_duration": 0,
    "math_mag": 0,
    "mez_type": "None",
    "modifier_table": "Melee_Buff_Def",
    "modifier_table_index": 12,
    "near_ground": false,
    "override_value": "",
    "override_count": -1,
    "power_id": "Defender_Buff.Force_Field.Personal_Force_Field",
    "probability": 1,
    "probability_base": 1,
    "procs_per_minute": 0,
    "pv_mode": "PvP",
    "requires_to_hit_check": false,
    "resistible": false,
    "reward": "",
    "scale": 7.5,
    "special": "",
    "special_case": "None",
    "stacking": "No",
    "summon": "",
    "summon_count": -1,
    "suppression": 256,
    "ticks": 0,
    "to_who": "ToSelf",
    "id_class_name": "",
    "unique_id": 11,
    "variable_modified": false,
    "variable_modified_override": false
  },
  {
    "absorbed_class_id": -1,
    "absorbed_duration": 0,
    "absorbed_effect": false,
    "absorbed_effect_id": -1,
    "absorbed_interval": 0,
    "absorbed_power_id": "",
    "absorbed_power_type": "Automatic",
    "aspect": "Cur",
    "attribute_type": "Magnitude",
    "buff_mode": "Normal",
    "buffable": true,
    "cancel_on_miss": false,
    "damage_type": "Lethal",
    "delayed_time": 0,
    "display_percentage": true,
    "display_percentage_override": "NoOverride",
    "duration": 0.75,
    "effect_class": "Primary",
    "effect_id": "Buff_Def",
    "effect_type": "Defense",
    "effect_type_modifies": "None",
    "enhancement_long_name": "",
    "inherent_special": false,
    "is_enhancement_effect": false,
    "mag": 0.75,
    "mag_percent": 75,
    "magnitude": 1,
    "magnitude_expression": "",
    "math_duration": 0,
    "math_mag": 0,
    "mez_type": "None",
    "modifier_table": "Melee_Buff_Def",
    "modifier_table_index": 12,
    "near_ground": false,
    "override_value": "",
    "override_count": -1,
    "power_id": "Defender_Buff.Force_Field.Personal_Force_Field",
    "probability": 1,
    "probability_base": 1,
    "procs_per_minute": 0,
    "pv_mode": "PvP",
    "requires_to_hit_check": false,
    "resistible": false,
    "reward": "",
    "scale": 7.5,
    "special": "",
    "special_case": "None",
    "stacking": "No",
    "summon": "",
    "summon_count": -1,
    "suppression": 256,
    "ticks": 0,
    "to_who": "ToSelf",
    "id_class_name": "",
    "unique_id": 12,
    "variable_modified": false,
    "variable_modified_override": false
  },
  {
    "absorbed_class_id": -1,
    "absorbed_duration": 0,
    "absorbed_effect": false,
    "absorbed_effect_id": -1,
    "absorbed_interval": 0,
    "absorbed_power_id": "",
    "absorbed_power_type": "Automatic",
    "aspect": "Cur",
    "attribute_type": "Magnitude",
    "buff_mode": "Normal",
    "buffable": true,
    "cancel_on_miss": false,
    "damage_type": "Cold",
    "delayed_time": 0,
    "display_percentage": true,
    "display_percentage_override": "NoOverride",
    "duration": 0.75,
    "effect_class": "Primary",
    "effect_id": "Buff_Def",
    "effect_type": "Defense",
    "effect_type_modifies": "None",
    "enhancement_long_name": "",
    "inherent_special": false,
    "is_enhancement_effect": false,
    "mag": 0.75,
    "mag_percent": 75,
    "magnitude": 1,
    "magnitude_expression": "",
    "math_duration": 0,
    "math_mag": 0,
    "mez_type": "None",
    "modifier_table": "Melee_Buff_Def",
    "modifier_table_index": 12,
    "near_ground": false,
    "override_value": "",
    "override_count": -1,
    "power_id": "Defender_Buff.Force_Field.Personal_Force_Field",
    "probability": 1,
    "probability_base": 1,
    "procs_per_minute": 0,
    "pv_mode": "PvP",
    "requires_to_hit_check": false,
    "resistible": false,
    "reward": "",
    "scale": 7.5,
    "special": "",
    "special_case": "None",
    "stacking": "No",
    "summon": "",
    "summon_count": -1,
    "suppression": 256,
    "ticks": 0,
    "to_who": "ToSelf",
    "id_class_name": "",
    "unique_id": 13,
    "variable_modified": false,
    "variable_modified_override": false
  },
  {
    "absorbed_class_id": -1,
    "absorbed_duration": 0,
    "absorbed_effect": false,
    "absorbed_effect_id": -1,
    "absorbed_interval": 0,
    "absorbed_power_id": "",
    "absorbed_power_type": "Automatic",
    "aspect": "Cur",
    "attribute_type": "Magnitude",
    "buff_mode": "Normal",
    "buffable": true,
    "cancel_on_miss": false,
    "damage_type": "Fire",
    "delayed_time": 0,
    "display_percentage": true,
    "display_percentage_override": "NoOverride",
    "duration": 0.75,
    "effect_class": "Primary",
    "effect_id": "Buff_Def",
    "effect_type": "Defense",
    "effect_type_modifies": "None",
    "enhancement_long_name": "",
    "inherent_special": false,
    "is_enhancement_effect": false,
    "mag": 0.75,
    "mag_percent": 75,
    "magnitude": 1,
    "magnitude_expression": "",
    "math_duration": 0,
    "math_mag": 0,
    "mez_type": "None",
    "modifier_table": "Melee_Buff_Def",
    "modifier_table_index": 12,
    "near_ground": false,
    "override_value": "",
    "override_count": -1,
    "power_id": "Defender_Buff.Force_Field.Personal_Force_Field",
    "probability": 1,
    "probability_base": 1,
    "procs_per_minute": 0,
    "pv_mode": "PvP",
    "requires_to_hit_check": false,
    "resistible": false,
    "reward": "",
    "scale": 7.5,
    "special": "",
    "special_case": "None",
    "stacking": "No",
    "summon": "",
    "summon_count": -1,
    "suppression": 256,
    "ticks": 0,
    "to_who": "ToSelf",
    "id_class_name": "",
    "unique_id": 14,
    "variable_modified": false,
    "variable_modified_override": false
  },
  {
    "absorbed_class_id": -1,
    "absorbed_duration": 0,
    "absorbed_effect": false,
    "absorbed_effect_id": -1,
    "absorbed_interval": 0,
    "absorbed_power_id": "",
    "absorbed_power_type": "Automatic",
    "aspect": "Cur",
    "attribute_type": "Magnitude",
    "buff_mode": "Normal",
    "buffable": true,
    "cancel_on_miss": false,
    "damage_type": "Psionic",
    "delayed_time": 0,
    "display_percentage": true,
    "display_percentage_override": "NoOverride",
    "duration": 0.75,
    "effect_class": "Primary",
    "effect_id": "Buff_Def",
    "effect_type": "Defense",
    "effect_type_modifies": "None",
    "enhancement_long_name": "",
    "inherent_special": false,
    "is_enhancement_effect": false,
    "mag": 0.75,
    "mag_percent": 75,
    "magnitude": 1,
    "magnitude_expression": "",
    "math_duration": 0,
    "math_mag": 0,
    "mez_type": "None",
    "modifier_table": "Melee_Buff_Def",
    "modifier_table_index": 12,
    "near_ground": false,
    "override_value": "",
    "override_count": -1,
    "power_id": "Defender_Buff.Force_Field.Personal_Force_Field",
    "probability": 1,
    "probability_base": 1,
    "procs_per_minute": 0,
    "pv_mode": "PvP",
    "requires_to_hit_check": false,
    "resistible": false,
    "reward": "",
    "scale": 7.5,
    "special": "",
    "special_case": "None",
    "stacking": "No",
    "summon": "",
    "summon_count": -1,
    "suppression": 256,
    "ticks": 0,
    "to_who": "ToSelf",
    "id_class_name": "",
    "unique_id": 15,
    "variable_modified": false,
    "variable_modified_override": false
  },
  {
    "absorbed_class_id": -1,
    "absorbed_duration": 0,
    "absorbed_effect": false,
    "absorbed_effect_id": -1,
    "absorbed_interval": 0,
    "absorbed_power_id": "",
    "absorbed_power_type": "Automatic",
    "aspect": "Cur",
    "attribute_type": "Magnitude",
    "buff_mode": "Normal",
    "buffable": true,
    "cancel_on_miss": false,
    "damage_type": "Energy",
    "delayed_time": 0,
    "display_percentage": true,
    "display_percentage_override": "NoOverride",
    "duration": 0.75,
    "effect_class": "Primary",
    "effect_id": "Buff_Def",
    "effect_type": "Defense",
    "effect_type_modifies": "None",
    "enhancement_long_name": "",
    "inherent_special": false,
    "is_enhancement_effect": false,
    "mag": 0.75,
    "mag_percent": 75,
    "magnitude": 1,
    "magnitude_expression": "",
    "math_duration": 0,
    "math_mag": 0,
    "mez_type": "None",
    "modifier_table": "Melee_Buff_Def",
    "modifier_table_index": 12,
    "near_ground": false,
    "override_value": "",
    "override_count": -1,
    "power_id": "Defender_Buff.Force_Field.Personal_Force_Field",
    "probability": 1,
    "probability_base": 1,
    "procs_per_minute": 0,
    "pv_mode": "PvP",
    "requires_to_hit_check": false,
    "resistible": false,
    "reward": "",
    "scale": 7.5,
    "special": "",
    "special_case": "None",
    "stacking": "No",
    "summon": "",
    "summon_count": -1,
    "suppression": 256,
    "ticks": 0,
    "to_who": "ToSelf",
    "id_class_name": "",
    "unique_id": 16,
    "variable_modified": false,
    "variable_modified_override": false
  },
  {
    "absorbed_class_id": -1,
    "absorbed_duration": 0,
    "absorbed_effect": false,
    "absorbed_effect_id": -1,
    "absorbed_interval": 0,
    "absorbed_power_id": "",
    "absorbed_power_type": "Automatic",
    "aspect": "Cur",
    "attribute_type": "Magnitude",
    "buff_mode": "Normal",
    "buffable": true,
    "cancel_on_miss": false,
    "damage_type": "Negative",
    "delayed_time": 0,
    "display_percentage": true,
    "display_percentage_override": "NoOverride",
    "duration": 0.75,
    "effect_class": "Primary",
    "effect_id": "Buff_Def",
    "effect_type": "Defense",
    "effect_type_modifies": "None",
    "enhancement_long_name": "",
    "inherent_special": false,
    "is_enhancement_effect": false,
    "mag": 0.75,
    "mag_percent": 75,
    "magnitude": 1,
    "magnitude_expression": "",
    "math_duration": 0,
    "math_mag": 0,
    "mez_type": "None",
    "modifier_table": "Melee_Buff_Def",
    "modifier_table_index": 12,
    "near_ground": false,
    "override_value": "",
    "override_count": -1,
    "power_id": "Defender_Buff.Force_Field.Personal_Force_Field",
    "probability": 1,
    "probability_base": 1,
    "procs_per_minute": 0,
    "pv_mode": "PvP",
    "requires_to_hit_check": false,
    "resistible": false,
    "reward": "",
    "scale": 7.5,
    "special": "",
    "special_case": "None",
    "stacking": "No",
    "summon": "",
    "summon_count": -1,
    "suppression": 256,
    "ticks": 0,
    "to_who": "ToSelf",
    "id_class_name": "",
    "unique_id": 17,
    "variable_modified": false,
    "variable_modified_override": false
  },
  {
    "absorbed_class_id": -1,
    "absorbed_duration": 0,
    "absorbed_effect": false,
    "absorbed_effect_id": -1,
    "absorbed_interval": 0,
    "absorbed_power_id": "",
    "absorbed_power_type": "Automatic",
    "aspect": "Res",
    "attribute_type": "Magnitude",
    "buff_mode": "Normal",
    "buffable": false,
    "cancel_on_miss": false,
    "damage_type": "Smashing",
    "delayed_time": 0,
    "display_percentage": true,
    "display_percentage_override": "NoOverride",
    "duration": 0.75,
    "effect_class": "Primary",
    "effect_id": "Res_Dmg",
    "effect_type": "Resistance",
    "effect_type_modifies": "None",
    "enhancement_long_name": "",
    "inherent_special": false,
    "is_enhancement_effect": false,
    "mag": 0.400000006,
    "mag_percent": 40,
    "magnitude": 1,
    "magnitude_expression": "",
    "math_duration": 0,
    "math_mag": 0,
    "mez_type": "None",
    "modifier_table": "Melee_Res_Dmg",
    "modifier_table_index": 18,
    "near_ground": false,
    "override_value": "",
    "override_count": -1,
    "power_id": "Defender_Buff.Force_Field.Personal_Force_Field",
    "probability": 1,
    "probability_base": 1,
    "procs_per_minute": 0,
    "pv_mode": "PvP",
    "requires_to_hit_check": false,
    "resistible": false,
    "reward": "",
    "scale": 4,
    "special": "",
    "special_case": "None",
    "stacking": "No",
    "summon": "",
    "summon_count": -1,
    "suppression": 256,
    "ticks": 0,
    "to_who": "ToSelf",
    "id_class_name": "",
    "unique_id": 18,
    "variable_modified": false,
    "variable_modified_override": false
  },
  {
    "absorbed_class_id": -1,
    "absorbed_duration": 0,
    "absorbed_effect": false,
    "absorbed_effect_id": -1,
    "absorbed_interval": 0,
    "absorbed_power_id": "",
    "absorbed_power_type": "Automatic",
    "aspect": "Res",
    "attribute_type": "Magnitude",
    "buff_mode": "Normal",
    "buffable": false,
    "cancel_on_miss": false,
    "damage_type": "Lethal",
    "delayed_time": 0,
    "display_percentage": true,
    "display_percentage_override": "NoOverride",
    "duration": 0.75,
    "effect_class": "Primary",
    "effect_id": "Res_Dmg",
    "effect_type": "Resistance",
    "effect_type_modifies": "None",
    "enhancement_long_name": "",
    "inherent_special": false,
    "is_enhancement_effect": false,
    "mag": 0.400000006,
    "mag_percent": 40,
    "magnitude": 1,
    "magnitude_expression": "",
    "math_duration": 0,
    "math_mag": 0,
    "mez_type": "None",
    "modifier_table": "Melee_Res_Dmg",
    "modifier_table_index": 18,
    "near_ground": false,
    "override_value": "",
    "override_count": -1,
    "power_id": "Defender_Buff.Force_Field.Personal_Force_Field",
    "probability": 1,
    "probability_base": 1,
    "procs_per_minute": 0,
    "pv_mode": "PvP",
    "requires_to_hit_check": false,
    "resistible": false,
    "reward": "",
    "scale": 4,
    "special": "",
    "special_case": "None",
    "stacking": "No",
    "summon": "",
    "summon_count": -1,
    "suppression": 256,
    "ticks": 0,
    "to_who": "ToSelf",
    "id_class_name": "",
    "unique_id": 19,
    "variable_modified": false,
    "variable_modified_override": false
  },
  {
    "absorbed_class_id": -1,
    "absorbed_duration": 0,
    "absorbed_effect": false,
    "absorbed_effect_id": -1,
    "absorbed_interval": 0,
    "absorbed_power_id": "",
    "absorbed_power_type": "Automatic",
    "aspect": "Res",
    "attribute_type": "Magnitude",
    "buff_mode": "Normal",
    "buffable": false,
    "cancel_on_miss": false,
    "damage_type": "Fire",
    "delayed_time": 0,
    "display_percentage": true,
    "display_percentage_override": "NoOverride",
    "duration": 0.75,
    "effect_class": "Primary",
    "effect_id": "Res_Dmg",
    "effect_type": "Resistance",
    "effect_type_modifies": "None",
    "enhancement_long_name": "",
    "inherent_special": false,
    "is_enhancement_effect": false,
    "mag": 0.400000006,
    "mag_percent": 40,
    "magnitude": 1,
    "magnitude_expression": "",
    "math_duration": 0,
    "math_mag": 0,
    "mez_type": "None",
    "modifier_table": "Melee_Res_Dmg",
    "modifier_table_index": 18,
    "near_ground": false,
    "override_value": "",
    "override_count": -1,
    "power_id": "Defender_Buff.Force_Field.Personal_Force_Field",
    "probability": 1,
    "probability_base": 1,
    "procs_per_minute": 0,
    "pv_mode": "PvP",
    "requires_to_hit_check": false,
    "resistible": false,
    "reward": "",
    "scale": 4,
    "special": "",
    "special_case": "None",
    "stacking": "No",
    "summon": "",
    "summon_count": -1,
    "suppression": 256,
    "ticks": 0,
    "to_who": "ToSelf",
    "id_class_name": "",
    "unique_id": 20,
    "variable_modified": false,
    "variable_modified_override": false
  },
  {
    "absorbed_class_id": -1,
    "absorbed_duration": 0,
    "absorbed_effect": false,
    "absorbed_effect_id": -1,
    "absorbed_interval": 0,
    "absorbed_power_id": "",
    "absorbed_power_type": "Automatic",
    "aspect": "Res",
    "attribute_type": "Magnitude",
    "buff_mode": "Normal",
    "buffable": false,
    "cancel_on_miss": false,
    "damage_type": "Cold",
    "delayed_time": 0,
    "display_percentage": true,
    "display_percentage_override": "NoOverride",
    "duration": 0.75,
    "effect_class": "Primary",
    "effect_id": "Res_Dmg",
    "effect_type": "Resistance",
    "effect_type_modifies": "None",
    "enhancement_long_name": "",
    "inherent_special": false,
    "is_enhancement_effect": false,
    "mag": 0.400000006,
    "mag_percent": 40,
    "magnitude": 1,
    "magnitude_expression": "",
    "math_duration": 0,
    "math_mag": 0,
    "mez_type": "None",
    "modifier_table": "Melee_Res_Dmg",
    "modifier_table_index": 18,
    "near_ground": false,
    "override_value": "",
    "override_count": -1,
    "power_id": "Defender_Buff.Force_Field.Personal_Force_Field",
    "probability": 1,
    "probability_base": 1,
    "procs_per_minute": 0,
    "pv_mode": "PvP",
    "requires_to_hit_check": false,
    "resistible": false,
    "reward": "",
    "scale": 4,
    "special": "",
    "special_case": "None",
    "stacking": "No",
    "summon": "",
    "summon_count": -1,
    "suppression": 256,
    "ticks": 0,
    "to_who": "ToSelf",
    "id_class_name": "",
    "unique_id": 21,
    "variable_modified": false,
    "variable_modified_override": false
  },
  {
    "absorbed_class_id": -1,
    "absorbed_duration": 0,
    "absorbed_effect": false,
    "absorbed_effect_id": -1,
    "absorbed_interval": 0,
    "absorbed_power_id": "",
    "absorbed_power_type": "Automatic",
    "aspect": "Res",
    "attribute_type": "Magnitude",
    "buff_mode": "Normal",
    "buffable": false,
    "cancel_on_miss": false,
    "damage_type": "Energy",
    "delayed_time": 0,
    "display_percentage": true,
    "display_percentage_override": "NoOverride",
    "duration": 0.75,
    "effect_class": "Primary",
    "effect_id": "Res_Dmg",
    "effect_type": "Resistance",
    "effect_type_modifies": "None",
    "enhancement_long_name": "",
    "inherent_special": false,
    "is_enhancement_effect": false,
    "mag": 0.400000006,
    "mag_percent": 40,
    "magnitude": 1,
    "magnitude_expression": "",
    "math_duration": 0,
    "math_mag": 0,
    "mez_type": "None",
    "modifier_table": "Melee_Res_Dmg",
    "modifier_table_index": 18,
    "near_ground": false,
    "override_value": "",
    "override_count": -1,
    "power_id": "Defender_Buff.Force_Field.Personal_Force_Field",
    "probability": 1,
    "probability_base": 1,
    "procs_per_minute": 0,
    "pv_mode": "PvP",
    "requires_to_hit_check": false,
    "resistible": false,
    "reward": "",
    "scale": 4,
    "special": "",
    "special_case": "None",
    "stacking": "No",
    "summon": "",
    "summon_count": -1,
    "suppression": 256,
    "ticks": 0,
    "to_who": "ToSelf",
    "id_class_name": "",
    "unique_id": 22,
    "variable_modified": false,
    "variable_modified_override": false
  },
  {
    "absorbed_class_id": -1,
    "absorbed_duration": 0,
    "absorbed_effect": false,
    "absorbed_effect_id": -1,
    "absorbed_interval": 0,
    "absorbed_power_id": "",
    "absorbed_power_type": "Automatic",
    "aspect": "Res",
    "attribute_type": "Magnitude",
    "buff_mode": "Normal",
    "buffable": false,
    "cancel_on_miss": false,
    "damage_type": "Negative",
    "delayed_time": 0,
    "display_percentage": true,
    "display_percentage_override": "NoOverride",
    "duration": 0.75,
    "effect_class": "Primary",
    "effect_id": "Res_Dmg",
    "effect_type": "Resistance",
    "effect_type_modifies": "None",
    "enhancement_long_name": "",
    "inherent_special": false,
    "is_enhancement_effect": false,
    "mag": 0.400000006,
    "mag_percent": 40,
    "magnitude": 1,
    "magnitude_expression": "",
    "math_duration": 0,
    "math_mag": 0,
    "mez_type": "None",
    "modifier_table": "Melee_Res_Dmg",
    "modifier_table_index": 18,
    "near_ground": false,
    "override_value": "",
    "override_count": -1,
    "power_id": "Defender_Buff.Force_Field.Personal_Force_Field",
    "probability": 1,
    "probability_base": 1,
    "procs_per_minute": 0,
    "pv_mode": "PvP",
    "requires_to_hit_check": false,
    "resistible": false,
    "reward": "",
    "scale": 4,
    "special": "",
    "special_case": "None",
    "stacking": "No",
    "summon": "",
    "summon_count": -1,
    "suppression": 256,
    "ticks": 0,
    "to_who": "ToSelf",
    "id_class_name": "",
    "unique_id": 23,
    "variable_modified": false,
    "variable_modified_override": false
  },
  {
    "absorbed_class_id": -1,
    "absorbed_duration": 0,
    "absorbed_effect": false,
    "absorbed_effect_id": -1,
    "absorbed_interval": 0,
    "absorbed_power_id": "",
    "absorbed_power_type": "Automatic",
    "aspect": "Res",
    "attribute_type": "Magnitude",
    "buff_mode": "Normal",
    "buffable": false,
    "cancel_on_miss": false,
    "damage_type": "Psionic",
    "delayed_time": 0,
    "display_percentage": true,
    "display_percentage_override": "NoOverride",
    "duration": 0.75,
    "effect_class": "Primary",
    "effect_id": "Res_Dmg",
    "effect_type": "Resistance",
    "effect_type_modifies": "None",
    "enhancement_long_name": "",
    "inherent_special": false,
    "is_enhancement_effect": false,
    "mag": 0.400000006,
    "mag_percent": 40,
    "magnitude": 1,
    "magnitude_expression": "",
    "math_duration": 0,
    "math_mag": 0,
    "mez_type": "None",
    "modifier_table": "Melee_Res_Dmg",
    "modifier_table_index": 18,
    "near_ground": false,
    "override_value": "",
    "override_count": -1,
    "power_id": "Defender_Buff.Force_Field.Personal_Force_Field",
    "probability": 1,
    "probability_base": 1,
    "procs_per_minute": 0,
    "pv_mode": "PvP",
    "requires_to_hit_check": false,
    "resistible": false,
    "reward": "",
    "scale": 4,
    "special": "",
    "special_case": "None",
    "stacking": "No",
    "summon": "",
    "summon_count": -1,
    "suppression": 256,
    "ticks": 0,
    "to_who": "ToSelf",
    "id_class_name": "",
    "unique_id": 24,
    "variable_modified": false,
    "variable_modified_override": false
  },
  {
    "absorbed_class_id": -1,
    "absorbed_duration": 0,
    "absorbed_effect": false,
    "absorbed_effect_id": -1,
    "absorbed_interval": 0,
    "absorbed_power_id": "",
    "absorbed_power_type": "Automatic",
    "aspect": "Res",
    "attribute_type": "Magnitude",
    "buff_mode": "Normal",
    "buffable": true,
    "cancel_on_miss": false,
    "damage_type": "None",
    "delayed_time": 0,
    "display_percentage": true,
    "display_percentage_override": "NoOverride",
    "duration": 0.75,
    "effect_class": "Primary",
    "effect_id": "Ones",
    "effect_type": "MezResist",
    "effect_type_modifies": "None",
    "enhancement_long_name": "",
    "inherent_special": false,
    "is_enhancement_effect": false,
    "mag": 1,
    "mag_percent": 100,
    "magnitude": 1,
    "magnitude_expression": "",
    "math_duration": 0,
    "math_mag": 0,
    "mez_type": "Teleport",
    "modifier_table": "Melee_Ones",
    "modifier_table_index": 41,
    "near_ground": false,
    "override_value": "",
    "override_count": -1,
    "power_id": "Defender_Buff.Force_Field.Personal_Force_Field",
    "probability": 1,
    "probability_base": 1,
    "procs_per_minute": 0,
    "pv_mode": "Any",
    "requires_to_hit_check": false,
    "resistible": false,
    "reward": "",
    "scale": 1,
    "special": "",
    "special_case": "None",
    "stacking": "No",
    "summon": "",
    "summon_count": -1,
    "suppression": 256,
    "ticks": 0,
    "to_who": "ToSelf",
    "id_class_name": "",
    "unique_id": 25,
    "variable_modified": false,
    "variable_modified_override": false
  }
]