{
    "absorbed_class_id": -1,
    "absorbed_duration": 0,
    "absorbed_effect": false,
    "absorbed_effect_id": -1,
    "absorbed_interval": 0,
    "absorbed_power_id": "",
    "absorbed_power_type": "Automatic",
    "aspect": "Cur",
    "attribute_type": "Duration",
    "buff_mode": "Normal",
    "buffable": false,
    "cancel_on_miss": false,
    "damage_type": "None",
    "delayed_time": 0,
    "display_percentage": false,
    "display_percentage_override": "NoOverride",
    "duration": 0.75,
    "effect_class": "Primary",
    "effect_id": "Ones",
    "effect_type": "Mez",
    "effect_type_modifies": "None",
    "enhancement_long_name": "",
    "id": "ID",
    "inherent_special": false,
    "is_enhancement_effect": false,
    "mag": 100,
    "mag_percent": 100,
    "magnitude": 100,
    "magnitude_expression": "",
    "math_duration": 0,
    "math_mag": 0,
    "mez_type": "OnlyAffectsSelf",
    "modifier_table": "Melee_Ones",
    "modifier_table_index": 41,
    "near_ground": false,
    "override_value": "",
    "override_count": -1,
    "power_id": "Defender_Buff.Force_Field.Personal_Force_Field",
    "probability": 1,
    "probability_base": 1,
    "procs_per_minute": 0,
    "pv_mode": "Any",
    "requires_to_hit_check": false,
    "resistible": false,
    "reward": "",
    "scale": 0.75,
    "special": "",
    "special_case": "None",
    "stacking": "No",
    "summon": "",
    "summon_count": -1,
    "suppression": 256,
    "ticks": 0,
    "to_who": "ToSelf",
    "id_class_name": "",
    "unique_id": 1,
    "variable_modified": false,
    "variable_modified_override": false
  }