[
  {
    "level": 0,
    "power_id": "Defender_Buff.Force_Field.Personal_Force_Field",
    "tag": false,
    "stat_include": false,
    "variable_value": 0,
    "slots": [
      {
        "enhancement_id": "Crafted_Defense_Buff",
        "enhancement_level": 49,
        "grade": "None",
        "level": -1,
        "relative_level": "Even"
      },
      {
        "enhancement_id": "Crafted_Defense_Buff",
        "enhancement_level": 49,
        "grade": "None",
        "level": -1,
        "relative_level": "Even"
      },
      {
        "enhancement_id": "Crafted_Defense_Buff",
        "enhancement_level": 49,
        "grade": "None",
        "level": -1,
        "relative_level": "Even"
      }
    ],
    "sub_powers": []
  },
  {
    "level": 0,
    "power_id": "Defender_Buff.Force_Field.Deflection_Shield",
    "tag": false,
    "stat_include": false,
    "variable_value": 0,
    "slots": [
      {
        "enhancement_id": "Crafted_Defense_Buff",
        "enhancement_level": 49,
        "grade": "None",
        "level": -1,
        "relative_level": "Even"
      },
      {
        "enhancement_id": "Crafted_Defense_Buff",
        "enhancement_level": 49,
        "grade": "None",
        "level": -1,
        "relative_level": "Even"
      },
      {
        "enhancement_id": "Crafted_Defense_Buff",
        "enhancement_level": 49,
        "grade": "None",
        "level": -1,
        "relative_level": "Even"
      }
    ],
    "sub_powers": []
  },
  {
    "level": 0,
    "power_id": "Defender_Buff.Force_Field.Insulation_Shield",
    "tag": false,
    "stat_include": false,
    "variable_value": 0,
    "slots": [
      {
        "enhancement_id": "Crafted_Defense_Buff",
        "enhancement_level": 49,
        "grade": "None",
        "level": -1,
        "relative_level": "Even"
      },
      {
        "enhancement_id": "Crafted_Defense_Buff",
        "enhancement_level": 49,
        "grade": "None",
        "level": -1,
        "relative_level": "Even"
      },
      {
        "enhancement_id": "Crafted_Defense_Buff",
        "enhancement_level": 49,
        "grade": "None",
        "level": -1,
        "relative_level": "Even"
      }
    ],
    "sub_powers": []
  }
]