<?xml version="1.0" encoding="UTF-8"?>
<svg viewBox="0 0 45 45" xmlns="http://www.w3.org/2000/svg">
<g fill="#e0ffe0" stroke="#707070" data-name="Ellipse 21">
<circle cx="22.5" cy="22.5" r="22.5" stroke="none"/>
<circle cx="22.5" cy="22.5" r="22" fill="none"/>
</g>
</svg>
